{"source": "本地缓存", "fetchedAt": "2026-07-01T07:19:30Z", "data": {"code": 1, "info": "成功", "data": {"last": {"code": "2026171", "day": "2026-06-30", "one": 1, "two": 3, "three": 4, "open_time": "2026-06-30 21:15:00", "next_open_time": "2026-07-01 21:15:00", "next_code": "2026172"}, "data": {"list": [{"code": "2026171", "day": "2026-06-30", "one": 1, "two": 3, "three": 4, "open_time": "2026-06-30 21:15:00", "next_open_time": "2026-07-01 21:15:00", "next_code": "2026172"}, {"code": "2026170", "day": "2026-06-29", "one": 8, "two": 0, "three": 5, "open_time": "2026-06-29 21:15:00", "next_open_time": "2026-06-30 21:15:00", "next_code": "2026171"}, {"code": "2026169", "day": "2026-06-28", "one": 8, "two": 3, "three": 2, "open_time": "2026-06-28 21:15:00", "next_open_time": "2026-06-29 21:15:00", "next_code": "2026170"}, {"code": "2026168", "day": "2026-06-27", "one": 1, "two": 3, "three": 0, "open_time": "2026-06-27 21:15:00", "next_open_time": "2026-06-28 21:15:00", "next_code": "2026169"}, {"code": "2026167", "day": "2026-06-26", "one": 6, "two": 3, "three": 1, "open_time": "2026-06-26 21:15:00", "next_open_time": "2026-06-27 21:15:00", "next_code": "2026168"}, {"code": "2026166", "day": "2026-06-25", "one": 9, "two": 0, "three": 0, "open_time": "2026-06-25 21:15:00", "next_open_time": "2026-06-26 21:15:00", "next_code": "2026167"}, {"code": "2026165", "day": "2026-06-24", "one": 4, "two": 2, "three": 4, "open_time": "2026-06-24 21:15:00", "next_open_time": "2026-06-25 21:15:00", "next_code": "2026166"}, {"code": "2026164", "day": "2026-06-23", "one": 6, "two": 9, "three": 0, "open_time": "2026-06-23 21:15:00", "next_open_time": "2026-06-24 21:15:00", "next_code": "2026165"}, {"code": "2026163", "day": "2026-06-22", "one": 5, "two": 3, "three": 7, "open_time": "2026-06-22 21:15:00", "next_open_time": "2026-06-23 21:15:00", "next_code": "2026164"}, {"code": "2026162", "day": "2026-06-21", "one": 5, "two": 8, "three": 5, "open_time": "2026-06-21 21:15:00", "next_open_time": "2026-06-22 21:15:00", "next_code": "2026163"}, {"code": "2026161", "day": "2026-06-20", "one": 5, "two": 2, "three": 9, "open_time": "2026-06-20 21:15:00", "next_open_time": "2026-06-21 21:15:00", "next_code": "2026162"}, {"code": "2026160", "day": "2026-06-19", "one": 3, "two": 3, "three": 2, "open_time": "2026-06-19 21:15:00", "next_open_time": "2026-06-20 21:15:00", "next_code": "2026161"}, {"code": "2026159", "day": "2026-06-18", "one": 9, "two": 9, "three": 5, "open_time": "2026-06-18 21:15:00", "next_open_time": "2026-06-19 21:15:00", "next_code": "2026160"}, {"code": "2026158", "day": "2026-06-17", "one": 1, "two": 7, "three": 8, "open_time": "2026-06-17 21:15:00", "next_open_time": "2026-06-18 21:15:00", "next_code": "2026159"}, {"code": "2026157", "day": "2026-06-16", "one": 3, "two": 2, "three": 7, "open_time": "2026-06-16 21:15:00", "next_open_time": "2026-06-17 21:15:00", "next_code": "2026158"}, {"code": "2026156", "day": "2026-06-15", "one": 1, "two": 6, "three": 2, "open_time": "2026-06-15 21:15:00", "next_open_time": "2026-06-16 21:15:00", "next_code": "2026157"}, {"code": "2026155", "day": "2026-06-14", "one": 4, "two": 0, "three": 9, "open_time": "2026-06-14 21:15:00", "next_open_time": "2026-06-15 21:15:00", "next_code": "2026156"}, {"code": "2026154", "day": "2026-06-13", "one": 3, "two": 7, "three": 7, "open_time": "2026-06-13 21:15:00", "next_open_time": "2026-06-14 21:15:00", "next_code": "2026155"}, {"code": "2026153", "day": "2026-06-12", "one": 8, "two": 8, "three": 7, "open_time": "2026-06-12 21:15:00", "next_open_time": "2026-06-13 21:15:00", "next_code": "2026154"}, {"code": "2026152", "day": "2026-06-11", "one": 2, "two": 2, "three": 0, "open_time": "2026-06-11 21:15:00", "next_open_time": "2026-06-12 21:15:00", "next_code": "2026153"}], "currentPage": "1", "currentLimit": "20", "totalPage": 384, "totalCount": 7678}}}}