{"source": "本地缓存", "fetchedAt": "2026-07-01T07:19:31Z", "data": {"code": 1, "info": "成功", "data": {"last": {"code": "2026171", "day": "2026-06-30", "one": "06", "two": "08", "three": "11", "four": "16", "five": "20", "six": "22", "seven": "23", "eight": "30", "nine": "31", "ten": "33", "eleven": "38", "twelve": "39", "thirteen": "41", "fourteen": "44", "fifteen": "53", "sixteen": "54", "seventeen": "55", "eighteen": "62", "nineteen": "63", "twenty": "79", "open_time": "2026-06-30 21:30:00", "next_open_time": "2026-07-01 21:30:00", "next_code": "2026172"}, "data": {"list": [{"code": "2026171", "day": "2026-06-30", "one": "06", "two": "08", "three": "11", "four": "16", "five": "20", "six": "22", "seven": "23", "eight": "30", "nine": "31", "ten": "33", "eleven": "38", "twelve": "39", "thirteen": "41", "fourteen": "44", "fifteen": "53", "sixteen": "54", "seventeen": "55", "eighteen": "62", "nineteen": "63", "twenty": "79", "open_time": "2026-06-30 21:30:00", "next_open_time": "2026-07-01 21:30:00", "next_code": "2026172"}, {"code": "2026170", "day": "2026-06-29", "one": "02", "two": "03", "three": "07", "four": "09", "five": "16", "six": "20", "seven": "21", "eight": "23", "nine": "24", "ten": "25", "eleven": "27", "twelve": "33", "thirteen": "35", "fourteen": "36", "fifteen": "41", "sixteen": "43", "seventeen": "49", "eighteen": "51", "nineteen": "57", "twenty": "65", "open_time": "2026-06-29 21:30:00", "next_open_time": "2026-06-30 21:30:00", "next_code": "2026171"}, {"code": "2026169", "day": "2026-06-28", "one": "04", "two": "05", "three": "06", "four": "18", "five": "21", "six": "25", "seven": "26", "eight": "27", "nine": "31", "ten": "33", "eleven": "37", "twelve": "39", "thirteen": "40", "fourteen": "43", "fifteen": "52", "sixteen": "56", "seventeen": "58", "eighteen": "61", "nineteen": "62", "twenty": "73", "open_time": "2026-06-28 21:30:00", "next_open_time": "2026-06-29 21:30:00", "next_code": "2026170"}, {"code": "2026168", "day": "2026-06-27", "one": "02", "two": "06", "three": "08", "four": "09", "five": "20", "six": "21", "seven": "24", "eight": "25", "nine": "31", "ten": "33", "eleven": "42", "twelve": "44", "thirteen": "46", "fourteen": "48", "fifteen": "55", "sixteen": "61", "seventeen": "64", "eighteen": "66", "nineteen": "72", "twenty": "77", "open_time": "2026-06-27 21:30:00", "next_open_time": "2026-06-28 21:30:00", "next_code": "2026169"}, {"code": "2026167", "day": "2026-06-26", "one": "01", "two": "03", "three": "12", "four": "13", "five": "15", "six": "16", "seven": "17", "eight": "22", "nine": "24", "ten": "28", "eleven": "33", "twelve": "34", "thirteen": "35", "fourteen": "40", "fifteen": "45", "sixteen": "47", "seventeen": "54", "eighteen": "66", "nineteen": "68", "twenty": "74", "open_time": "2026-06-26 21:30:00", "next_open_time": "2026-06-27 21:30:00", "next_code": "2026168"}, {"code": "2026166", "day": "2026-06-25", "one": "02", "two": "08", "three": "14", "four": "16", "five": "17", "six": "24", "seven": "25", "eight": "27", "nine": "30", "ten": "31", "eleven": "41", "twelve": "48", "thirteen": "50", "fourteen": "55", "fifteen": "61", "sixteen": "70", "seventeen": "71", "eighteen": "73", "nineteen": "76", "twenty": "79", "open_time": "2026-06-25 21:30:00", "next_open_time": "2026-06-26 21:30:00", "next_code": "2026167"}, {"code": "2026165", "day": "2026-06-24", "one": "01", "two": "09", "three": "10", "four": "12", "five": "26", "six": "31", "seven": "33", "eight": "35", "nine": "39", "ten": "42", "eleven": "46", "twelve": "48", "thirteen": "49", "fourteen": "57", "fifteen": "61", "sixteen": "64", "seventeen": "65", "eighteen": "66", "nineteen": "67", "twenty": "74", "open_time": "2026-06-24 21:30:00", "next_open_time": "2026-06-25 21:30:00", "next_code": "2026166"}, {"code": "2026164", "day": "2026-06-23", "one": "01", "two": "03", "three": "04", "four": "05", "five": "13", "six": "17", "seven": "19", "eight": "25", "nine": "30", "ten": "34", "eleven": "38", "twelve": "46", "thirteen": "56", "fourteen": "58", "fifteen": "59", "sixteen": "60", "seventeen": "63", "eighteen": "69", "nineteen": "76", "twenty": "80", "open_time": "2026-06-23 21:30:00", "next_open_time": "2026-06-24 21:30:00", "next_code": "2026165"}, {"code": "2026163", "day": "2026-06-22", "one": "08", "two": "09", "three": "11", "four": "14", "five": "18", "six": "22", "seven": "28", "eight": "35", "nine": "37", "ten": "40", "eleven": "41", "twelve": "42", "thirteen": "45", "fourteen": "50", "fifteen": "54", "sixteen": "58", "seventeen": "70", "eighteen": "71", "nineteen": "73", "twenty": "74", "open_time": "2026-06-22 21:30:00", "next_open_time": "2026-06-23 21:30:00", "next_code": "2026164"}, {"code": "2026162", "day": "2026-06-21", "one": "01", "two": "02", "three": "08", "four": "13", "five": "16", "six": "18", "seven": "19", "eight": "30", "nine": "33", "ten": "37", "eleven": "39", "twelve": "40", "thirteen": "56", "fourteen": "57", "fifteen": "63", "sixteen": "69", "seventeen": "71", "eighteen": "73", "nineteen": "76", "twenty": "78", "open_time": "2026-06-21 21:30:00", "next_open_time": "2026-06-22 21:30:00", "next_code": "2026163"}, {"code": "2026161", "day": "2026-06-20", "one": "02", "two": "14", "three": "15", "four": "23", "five": "28", "six": "30", "seven": "35", "eight": "39", "nine": "43", "ten": "44", "eleven": "49", "twelve": "50", "thirteen": "51", "fourteen": "53", "fifteen": "57", "sixteen": "60", "seventeen": "62", "eighteen": "69", "nineteen": "74", "twenty": "76", "open_time": "2026-06-20 21:30:00", "next_open_time": "2026-06-21 21:30:00", "next_code": "2026162"}, {"code": "2026160", "day": "2026-06-19", "one": "02", "two": "04", "three": "06", "four": "09", "five": "13", "six": "26", "seven": "32", "eight": "36", "nine": "38", "ten": "41", "eleven": "44", "twelve": "47", "thirteen": "56", "fourteen": "58", "fifteen": "60", "sixteen": "69", "seventeen": "72", "eighteen": "76", "nineteen": "78", "twenty": "80", "open_time": "2026-06-19 21:30:00", "next_open_time": "2026-06-20 21:30:00", "next_code": "2026161"}, {"code": "2026159", "day": "2026-06-18", "one": "04", "two": "05", "three": "08", "four": "12", "five": "22", "six": "23", "seven": "26", "eight": "27", "nine": "35", "ten": "39", "eleven": "47", "twelve": "50", "thirteen": "56", "fourteen": "58", "fifteen": "60", "sixteen": "61", "seventeen": "66", "eighteen": "70", "nineteen": "71", "twenty": "77", "open_time": "2026-06-18 21:30:00", "next_open_time": "2026-06-19 21:30:00", "next_code": "2026160"}, {"code": "2026158", "day": "2026-06-17", "one": "05", "two": "11", "three": "12", "four": "15", "five": "20", "six": "23", "seven": "28", "eight": "29", "nine": "37", "ten": "38", "eleven": "45", "twelve": "49", "thirteen": "51", "fourteen": "55", "fifteen": "63", "sixteen": "64", "seventeen": "65", "eighteen": "69", "nineteen": "77", "twenty": "79", "open_time": "2026-06-17 21:30:00", "next_open_time": "2026-06-18 21:30:00", "next_code": "2026159"}, {"code": "2026157", "day": "2026-06-16", "one": "01", "two": "03", "three": "06", "four": "08", "five": "14", "six": "18", "seven": "29", "eight": "38", "nine": "39", "ten": "42", "eleven": "44", "twelve": "46", "thirteen": "49", "fourteen": "51", "fifteen": "57", "sixteen": "58", "seventeen": "61", "eighteen": "75", "nineteen": "77", "twenty": "80", "open_time": "2026-06-16 21:30:00", "next_open_time": "2026-06-17 21:30:00", "next_code": "2026158"}, {"code": "2026156", "day": "2026-06-15", "one": "02", "two": "05", "three": "09", "four": "11", "five": "16", "six": "17", "seven": "19", "eight": "27", "nine": "39", "ten": "48", "eleven": "49", "twelve": "54", "thirteen": "62", "fourteen": "63", "fifteen": "66", "sixteen": "69", "seventeen": "70", "eighteen": "71", "nineteen": "73", "twenty": "76", "open_time": "2026-06-15 21:30:00", "next_open_time": "2026-06-16 21:30:00", "next_code": "2026157"}, {"code": "2026155", "day": "2026-06-14", "one": "07", "two": "10", "three": "11", "four": "12", "five": "17", "six": "18", "seven": "24", "eight": "27", "nine": "30", "ten": "31", "eleven": "32", "twelve": "34", "thirteen": "42", "fourteen": "49", "fifteen": "54", "sixteen": "59", "seventeen": "64", "eighteen": "65", "nineteen": "71", "twenty": "72", "open_time": "2026-06-14 21:30:00", "next_open_time": "2026-06-15 21:30:00", "next_code": "2026156"}, {"code": "2026154", "day": "2026-06-13", "one": "07", "two": "10", "three": "12", "four": "13", "five": "17", "six": "18", "seven": "26", "eight": "29", "nine": "33", "ten": "38", "eleven": "41", "twelve": "47", "thirteen": "50", "fourteen": "54", "fifteen": "56", "sixteen": "57", "seventeen": "58", "eighteen": "62", "nineteen": "68", "twenty": "73", "open_time": "2026-06-13 21:30:00", "next_open_time": "2026-06-14 21:30:00", "next_code": "2026155"}, {"code": "2026153", "day": "2026-06-12", "one": "01", "two": "07", "three": "17", "four": "19", "five": "20", "six": "21", "seven": "22", "eight": "23", "nine": "35", "ten": "37", "eleven": "43", "twelve": "44", "thirteen": "49", "fourteen": "51", "fifteen": "53", "sixteen": "59", "seventeen": "66", "eighteen": "71", "nineteen": "77", "twenty": "78", "open_time": "2026-06-12 21:30:00", "next_open_time": "2026-06-13 21:30:00", "next_code": "2026154"}, {"code": "2026152", "day": "2026-06-11", "one": "01", "two": "03", "three": "13", "four": "16", "five": "18", "six": "25", "seven": "32", "eight": "35", "nine": "37", "ten": "44", "eleven": "45", "twelve": "47", "thirteen": "58", "fourteen": "59", "fifteen": "60", "sixteen": "63", "seventeen": "66", "eighteen": "68", "nineteen": "72", "twenty": "75", "open_time": "2026-06-11 21:30:00", "next_open_time": "2026-06-12 21:30:00", "next_code": "2026153"}], "currentPage": "1", "currentLimit": "20", "totalPage": 100, "totalCount": 1992}}}}