{"source": "本地缓存", "fetchedAt": "2026-07-01T07:19:30Z", "data": {"code": 1, "info": "成功", "data": {"last": {"code": "2026074", "day": "2026-06-30", "one": "02", "two": "23", "three": "24", "four": "26", "five": "28", "six": "32", "seven": "04", "open_time": "2026-06-30 21:15:00", "next_open_time": "2026-07-02 21:15:00", "next_code": "2026075"}, "data": {"list": [{"code": "2026074", "day": "2026-06-30", "one": "02", "two": "23", "three": "24", "four": "26", "five": "28", "six": "32", "seven": "04", "open_time": "2026-06-30 21:15:00", "next_open_time": "2026-07-02 21:15:00", "next_code": "2026075"}, {"code": "2026073", "day": "2026-06-28", "one": "09", "two": "10", "three": "13", "four": "16", "five": "19", "six": "21", "seven": "08", "open_time": "2026-06-28 21:15:00", "next_open_time": "2026-06-30 21:15:00", "next_code": "2026074"}, {"code": "2026072", "day": "2026-06-25", "one": "07", "two": "08", "three": "12", "four": "15", "five": "17", "six": "21", "seven": "01", "open_time": "2026-06-25 21:15:00", "next_open_time": "2026-06-28 21:15:00", "next_code": "2026073"}, {"code": "2026071", "day": "2026-06-23", "one": "03", "two": "08", "three": "19", "four": "25", "five": "31", "six": "33", "seven": "05", "open_time": "2026-06-23 21:15:00", "next_open_time": "2026-06-25 21:15:00", "next_code": "2026072"}, {"code": "2026070", "day": "2026-06-21", "one": "03", "two": "06", "three": "08", "four": "14", "five": "26", "six": "27", "seven": "08", "open_time": "2026-06-21 21:15:00", "next_open_time": "2026-06-23 21:15:00", "next_code": "2026071"}, {"code": "2026069", "day": "2026-06-18", "one": "12", "two": "14", "three": "16", "four": "17", "five": "18", "six": "32", "seven": "08", "open_time": "2026-06-18 21:15:00", "next_open_time": "2026-06-21 21:15:00", "next_code": "2026070"}, {"code": "2026068", "day": "2026-06-16", "one": "03", "two": "05", "three": "16", "four": "18", "five": "29", "six": "32", "seven": "04", "open_time": "2026-06-16 21:15:00", "next_open_time": "2026-06-18 21:15:00", "next_code": "2026069"}, {"code": "2026067", "day": "2026-06-14", "one": "04", "two": "19", "three": "27", "four": "29", "five": "30", "six": "32", "seven": "13", "open_time": "2026-06-14 21:15:00", "next_open_time": "2026-06-16 21:15:00", "next_code": "2026068"}, {"code": "2026066", "day": "2026-06-11", "one": "05", "two": "11", "three": "21", "four": "23", "five": "24", "six": "29", "seven": "16", "open_time": "2026-06-11 21:15:00", "next_open_time": "2026-06-14 21:15:00", "next_code": "2026067"}, {"code": "2026065", "day": "2026-06-09", "one": "07", "two": "08", "three": "16", "four": "24", "five": "30", "six": "32", "seven": "02", "open_time": "2026-06-09 21:15:00", "next_open_time": "2026-06-11 21:15:00", "next_code": "2026066"}, {"code": "2026064", "day": "2026-06-07", "one": "01", "two": "09", "three": "15", "four": "18", "five": "29", "six": "33", "seven": "15", "open_time": "2026-06-07 21:15:00", "next_open_time": "2026-06-09 21:15:00", "next_code": "2026065"}, {"code": "2026063", "day": "2026-06-04", "one": "02", "two": "08", "three": "25", "four": "28", "five": "30", "six": "31", "seven": "02", "open_time": "2026-06-04 21:15:00", "next_open_time": "2026-06-07 21:15:00", "next_code": "2026064"}, {"code": "2026062", "day": "2026-06-02", "one": "02", "two": "04", "three": "07", "four": "14", "five": "28", "six": "29", "seven": "09", "open_time": "2026-06-02 21:15:00", "next_open_time": "2026-06-04 21:15:00", "next_code": "2026063"}, {"code": "2026061", "day": "2026-05-31", "one": "01", "two": "04", "three": "05", "four": "15", "five": "23", "six": "28", "seven": "07", "open_time": "2026-05-31 21:15:00", "next_open_time": "2026-06-02 21:15:00", "next_code": "2026062"}, {"code": "2026060", "day": "2026-05-28", "one": "07", "two": "09", "three": "10", "four": "16", "five": "22", "six": "27", "seven": "11", "open_time": "2026-05-28 21:15:00", "next_open_time": "2026-05-31 21:15:00", "next_code": "2026061"}, {"code": "2026059", "day": "2026-05-26", "one": "08", "two": "16", "three": "26", "four": "28", "five": "29", "six": "30", "seven": "15", "open_time": "2026-05-26 21:15:00", "next_open_time": "2026-05-28 21:15:00", "next_code": "2026060"}, {"code": "2026058", "day": "2026-05-24", "one": "01", "two": "04", "three": "07", "four": "21", "five": "29", "six": "30", "seven": "01", "open_time": "2026-05-24 21:15:00", "next_open_time": "2026-05-26 21:15:00", "next_code": "2026059"}, {"code": "2026057", "day": "2026-05-21", "one": "01", "two": "10", "three": "22", "four": "24", "five": "28", "six": "30", "seven": "07", "open_time": "2026-05-21 21:15:00", "next_open_time": "2026-05-24 21:15:00", "next_code": "2026058"}, {"code": "2026056", "day": "2026-05-19", "one": "10", "two": "19", "three": "21", "four": "22", "five": "31", "six": "33", "seven": "05", "open_time": "2026-05-19 21:15:00", "next_open_time": "2026-05-21 21:15:00", "next_code": "2026057"}, {"code": "2026055", "day": "2026-05-17", "one": "04", "two": "11", "three": "24", "four": "25", "five": "32", "six": "33", "seven": "13", "open_time": "2026-05-17 21:15:00", "next_open_time": "2026-05-19 21:15:00", "next_code": "2026056"}], "currentPage": "1", "currentLimit": "20", "totalPage": 174, "totalCount": 3471}}}}