{"source": "本地缓存", "fetchedAt": "2026-07-01T07:19:30Z", "data": {"code": 1, "info": "成功", "data": {"last": {"code": "2026073", "day": "2026-06-29", "one": "01", "two": "03", "three": "06", "four": "16", "five": "25", "six": "27", "seven": "29", "eight": "09", "open_time": "2026-06-29 21:15:00", "next_open_time": "2026-07-01 21:15:00", "next_code": "2026074"}, "data": {"list": [{"code": "2026073", "day": "2026-06-29", "one": "01", "two": "03", "three": "06", "four": "16", "five": "25", "six": "27", "seven": "29", "eight": "09", "open_time": "2026-06-29 21:15:00", "next_open_time": "2026-07-01 21:15:00", "next_code": "2026074"}, {"code": "2026072", "day": "2026-06-26", "one": "14", "two": "16", "three": "17", "four": "24", "five": "25", "six": "27", "seven": "28", "eight": "09", "open_time": "2026-06-26 21:15:00", "next_open_time": "2026-06-29 21:15:00", "next_code": "2026073"}, {"code": "2026071", "day": "2026-06-24", "one": "10", "two": "12", "three": "14", "four": "20", "five": "25", "six": "26", "seven": "30", "eight": "21", "open_time": "2026-06-24 21:15:00", "next_open_time": "2026-06-26 21:15:00", "next_code": "2026072"}, {"code": "2026070", "day": "2026-06-22", "one": "02", "two": "04", "three": "07", "four": "08", "five": "14", "six": "24", "seven": "27", "eight": "16", "open_time": "2026-06-22 21:15:00", "next_open_time": "2026-06-24 21:15:00", "next_code": "2026071"}, {"code": "2026069", "day": "2026-06-19", "one": "03", "two": "04", "three": "12", "four": "14", "five": "15", "six": "27", "seven": "30", "eight": "28", "open_time": "2026-06-19 21:15:00", "next_open_time": "2026-06-22 21:15:00", "next_code": "2026070"}, {"code": "2026068", "day": "2026-06-17", "one": "06", "two": "07", "three": "12", "four": "13", "five": "22", "six": "25", "seven": "26", "eight": "27", "open_time": "2026-06-17 21:15:00", "next_open_time": "2026-06-19 21:15:00", "next_code": "2026069"}, {"code": "2026067", "day": "2026-06-15", "one": "02", "two": "05", "three": "15", "four": "17", "five": "23", "six": "25", "seven": "30", "eight": "16", "open_time": "2026-06-15 21:15:00", "next_open_time": "2026-06-17 21:15:00", "next_code": "2026068"}, {"code": "2026066", "day": "2026-06-12", "one": "10", "two": "11", "three": "12", "four": "13", "five": "14", "six": "15", "seven": "17", "eight": "06", "open_time": "2026-06-12 21:15:00", "next_open_time": "2026-06-15 21:15:00", "next_code": "2026067"}, {"code": "2026065", "day": "2026-06-10", "one": "04", "two": "09", "three": "17", "four": "18", "five": "24", "six": "27", "seven": "29", "eight": "05", "open_time": "2026-06-10 21:15:00", "next_open_time": "2026-06-12 21:15:00", "next_code": "2026066"}, {"code": "2026064", "day": "2026-06-08", "one": "04", "two": "06", "three": "10", "four": "13", "five": "16", "six": "18", "seven": "26", "eight": "27", "open_time": "2026-06-08 21:15:00", "next_open_time": "2026-06-10 21:15:00", "next_code": "2026065"}, {"code": "2026063", "day": "2026-06-05", "one": "03", "two": "07", "three": "08", "four": "11", "five": "14", "six": "21", "seven": "30", "eight": "19", "open_time": "2026-06-05 21:15:00", "next_open_time": "2026-06-08 21:15:00", "next_code": "2026064"}, {"code": "2026062", "day": "2026-06-03", "one": "02", "two": "07", "three": "24", "four": "25", "five": "27", "six": "29", "seven": "30", "eight": "16", "open_time": "2026-06-03 21:15:00", "next_open_time": "2026-06-05 21:15:00", "next_code": "2026063"}, {"code": "2026061", "day": "2026-06-01", "one": "10", "two": "16", "three": "18", "four": "19", "five": "20", "six": "25", "seven": "27", "eight": "26", "open_time": "2026-06-01 21:15:00", "next_open_time": "2026-06-03 21:15:00", "next_code": "2026062"}, {"code": "2026060", "day": "2026-05-29", "one": "02", "two": "09", "three": "16", "four": "19", "five": "22", "six": "28", "seven": "29", "eight": "03", "open_time": "2026-05-29 21:15:00", "next_open_time": "2026-06-01 21:15:00", "next_code": "2026061"}, {"code": "2026059", "day": "2026-05-27", "one": "07", "two": "08", "three": "09", "four": "17", "five": "26", "six": "28", "seven": "30", "eight": "11", "open_time": "2026-05-27 21:15:00", "next_open_time": "2026-05-29 21:15:00", "next_code": "2026060"}, {"code": "2026058", "day": "2026-05-25", "one": "06", "two": "09", "three": "10", "four": "14", "five": "16", "six": "18", "seven": "30", "eight": "12", "open_time": "2026-05-25 21:15:00", "next_open_time": "2026-05-27 21:15:00", "next_code": "2026059"}, {"code": "2026057", "day": "2026-05-22", "one": "05", "two": "08", "three": "14", "four": "15", "five": "18", "six": "22", "seven": "27", "eight": "11", "open_time": "2026-05-22 21:15:00", "next_open_time": "2026-05-25 21:15:00", "next_code": "2026058"}, {"code": "2026056", "day": "2026-05-20", "one": "02", "two": "03", "three": "04", "four": "08", "five": "12", "six": "15", "seven": "26", "eight": "22", "open_time": "2026-05-20 21:15:00", "next_open_time": "2026-05-22 21:15:00", "next_code": "2026057"}, {"code": "2026055", "day": "2026-05-18", "one": "05", "two": "06", "three": "11", "four": "14", "five": "17", "six": "19", "seven": "20", "eight": "18", "open_time": "2026-05-18 21:15:00", "next_open_time": "2026-05-20 21:15:00", "next_code": "2026056"}, {"code": "2026054", "day": "2026-05-15", "one": "07", "two": "08", "three": "09", "four": "10", "five": "15", "six": "23", "seven": "28", "eight": "13", "open_time": "2026-05-15 21:15:00", "next_open_time": "2026-05-18 21:15:00", "next_code": "2026055"}], "currentPage": "1", "currentLimit": "20", "totalPage": 125, "totalCount": 2493}}}}